Example code for practices
…
```
## `summarise()` has regrouped the output.
## ℹ Summaries were computed grouped by Sub and Shape.
## ℹ Output is grouped by Sub.
## ℹ Use `summarise(.groups = "drop_last")` to silence this message.
## ℹ Use `summarise(.by = c(Sub, Shape))` for per-operation grouping
##   (`?dplyr::dplyr_by`) instead.
```

``` r
print(df_dprime) #可以逐步打印结果以便检查
```

```
## # A tibble: 176 × 7
##      Sub Shape          hit    fa  miss    cr Dprime
##    <int> <chr>        <int> <int> <int> <int>  <dbl>
##  1  7302 immoralOther    40     4     5    38  2.53 
##  2  7302 immoralSelf     38     6     6    38  2.19 
##  3  7302 moralOther      43     4     2    41  3.05 
##  4  7302 moralSelf       39    11     5    32  1.86 
##  5  7303 immoralOther    35     5    10    40  1.99 
##  6  7303 immoralSelf     32    10    13    35  1.32 
##  7  7303 moralOther      39    15     5    30  1.64 
##  8  7303 moralSelf       42    17     3    28  1.81 
##  9  7304 immoralOther    51    23    20    44  0.981
## 10  7304 immoralSelf     60    19    13    54  1.57 
## # ℹ 166 more rows
```

---
## 4 (optional) 删除额外变量

``` r
df_dprime %>%
      dplyr::select(-c(hit:cr)) 
```

```
## # A tibble: 176 × 3
##      Sub Shape        Dprime
##    <int> <chr>         <dbl>
##  1  7302 immoralOther  2.53 
##  2  7302 immoralSelf   2.19 
##  3  7302 moralOther    3.05 
##  4  7302 moralSelf     1.86 
##  5  7303 immoralOther  1.99 
##  6  7303 immoralSelf   1.32 
##  7  7303 moralOther    1.64 
##  8  7303 moralSelf     1.81 
##  9  7304 immoralOther  0.981
## 10  7304 immoralSelf   1.57 
## # ℹ 166 more rows
```

---
- 6 长转宽，将形4个形状为列标题，以显示不同被试在不同形状条件下的$d'$ 值

``` r
df_dprime_w <- df_dprime %>%
      dplyr::select(-c(hit:cr)) %>%
      tidyr::pivot_wider(names_from = "Shape", values_from = "Dprime")

print(df_dprime_w)
```

```
## # A tibble: 44 × 5
##      Sub immoralOther immoralSelf moralOther moralSelf
##    <int>        <dbl>       <dbl>      <dbl>     <dbl>
##  1  7302        2.53        2.19       3.05       1.86
##  2  7303        1.99        1.32       1.64       1.81
##  3  7304        0.981       1.57       1.21       2.79
##  4  7305        2.96        1.77       2.30       2.18
##  5  7306        3.07        2.43       3.31       2.07
##  6  7307        1.83        2.63       1.78       2.33
##  7  7308        3.06        1.75       2.11       2.79
##  8  7309        1.76        0.802      0.967      2.11
##  9  7310        3.46        3.07       3.49       2.86
## 10  7311        1.40        2.86       2.25       1.10
## # ℹ 34 more rows
```
…
```
## `summarise()` has regrouped the output.
## ℹ Summaries were computed grouped by Sub and Shape.
## ℹ Output is grouped by Sub.
## ℹ Use `summarise(.groups = "drop_last")` to silence this message.
## ℹ Use `summarise(.by = c(Sub, Shape))` for per-operation grouping
##   (`?dplyr::dplyr_by`) instead.
```

``` r
print(df8)
```

```
## # A tibble: 176 × 3
##      Sub Shape          hit
##    <int> <chr>        <dbl>
##  1  7302 immoralOther 0.889
##  2  7302 immoralSelf  0.864
##  3  7302 moralOther   0.956
##  4  7302 moralSelf    0.886
##  5  7303 immoralOther 0.778
##  6  7303 immoralSelf  0.711
##  7  7303 moralOther   0.886
##  8  7303 moralSelf    0.933
##  9  7304 immoralOther 0.736
## 10  7304 immoralSelf  0.838
## # ℹ 166 more rows
```
…
