$DEN_CFA
# A tibble: 15,062 × 6
   PANDEMIC_FATIGUE_1_INF PANDEMIC_FATIGUE_3_INF PANDEMIC_FATIGUE_5_INF PANDEMIC_FATIGUE_2_MB
                    <dbl>                  <dbl>                  <dbl>                 <dbl>
 1                      5                      2                      2                     3
 2                      6                      7                      5                     4
 3                      6                      6                      3                     6
 4                      5                      3                      2                     2
 5                      2                      2                      2                     2
 6                      2                      2                      2                     2
 7                      3                      3                      1                     2
 8                      6                      3                      3                     5
 9                      4                      1                      4                     4
10                      4                      4                      4                     2
# ℹ 15,052 more rows
# ℹ 2 more variables: PANDEMIC_FATIGUE_4_MB <dbl>, PANDEMIC_FATIGUE_6_MB <dbl>
# ℹ Use `print(n = ...)` to see more rows
…
  Number of observations                         17946

Model Test User Model:
                                              Standard      Scaled
  Test Statistic                               394.574    1022.641
  Degrees of freedom                                 8           8
  P-value (Chi-square)                           0.000       0.000
  Scaling correction factor                                  0.386
  Shift parameter                                            0.597
    simple second-order correction                                

$GER_CFA
# A tibble: 17,946 × 6
   PANDEMIC_FATIGUE_1_INF PANDEMIC_FATIGUE_3_INF PANDEMIC_FATIGUE_5_INF PANDEMIC_FATIGUE_2_MB
                    <dbl>                  <dbl>                  <dbl>                 <dbl>
 1                      1                      1                      1                     1
 2                      1                      1                      1                     1
 3                      5                      4                      2                     1
 4                      5                      4                      4                     3
 5                      4                      2                      1                     1
 6                      1                      1                      1                     1
 7                      6                      5                      6                     2
 8                      5                      5                      4                     5
 9                      1                      1                      1                     1
10                      1                      1                      1                     1
# ℹ 17,936 more rows
# ℹ 2 more variables: PANDEMIC_FATIGUE_4_MB <dbl>, PANDEMIC_FATIGUE_6_MB <dbl>
# ℹ Use `print(n = ...)` to see more rows
